.....................
----------------------------------------------------------------------
Ran 21 tests in 0.005s

OK
Name               Stmts   Miss Branch BrPart  Cover   Missing
--------------------------------------------------------------
Diplomacy.py          61      0     44      0   100%
TestDiplomacy.py     105      0      8      1    99%   132->exit
--------------------------------------------------------------
TOTAL                166      0     52      1    99%
