.......................
----------------------------------------------------------------------
Ran 23 tests in 0.002s

OK
Name               Stmts   Miss Branch BrPart  Cover   Missing
--------------------------------------------------------------
Diplomacy.py          76      0     40      0   100%
TestDiplomacy.py     109      0      0      0   100%
--------------------------------------------------------------
TOTAL                185      0     40      0   100%
